{"context":"","status":200,"data":{"microcosms":{"total":27,"limit":25,"offset":0,"maxOffset":25,"totalPages":2,"page":1,"links":[{"rel":"self","href":"/api/v1/microcosms"},{"rel":"next","href":"/api/v1/microcosms?offset=25"}],"type":"/api/v1/microcosms","items":[{"id":1,"visibility":"public","title":"General","description":"The first Microcosm, for everyone to get a feel for the place","moderators":null,"totalItems":8,"totalComments":56,"mostRecentUpdate":{"microcosmId":1,"itemType":"conversation","id":16,"title":"Adding this item should update the item count on the home page","totalComments":8,"totalViews":80,"lastCommentId":220,"lastCommentCreatedBy":{"id":13,"userId":13,"profileName":"personauser_edited","visible":false,"gravatar":"https://secure.gravatar.com/avatar/478ddedce4d1b0b9359b0e3d4e869474","meta":{"links":[{"rel":"self","href":"/api/v1/profiles/13"},{"rel":"site","href":"/api/v1/sites/1"}]}},"lastCommentCreated":"2013-05-08T22:43:01.466846Z","meta":{"created":"2013-05-05T14:04:16.504523Z","createdBy":{"id":2,"userId":2,"profileName":"Velocio","visible":true,"gravatar":"https://secure.gravatar.com/avatar/309cb01f0a25f751e7294407d983f801","meta":{"links":[{"rel":"self","href":"/api/v1/profiles/2"},{"rel":"site","href":"/api/v1/sites/1"}]}},"flags":{"sticky":false,"open":true,"deleted":false,"moderated":false,"visible":true},"links":[{"rel":"self","href":"/api/v1/conversations/16"}]}},"meta":{"created":"2013-05-02T08:50:59.124169Z","createdBy":{"id":2,"userId":2,"profileName":"Velocio","visible":true,"gravatar":"https://secure.gravatar.com/avatar/309cb01f0a25f751e7294407d983f801","meta":{"links":[{"rel":"self","href":"/api/v1/profiles/2"},{"rel":"site","href":"/api/v1/sites/1"}]}},"flags":{"sticky":true,"open":true,"deleted":false,"moderated":false,"visible":false},"links":[{"rel":"self","href":"/api/v1/microcosms/1"},{"rel":"site","href":"/api/v1/sites/1"}]}},{"id":2,"visibility":"public","title":"Test ground","description":"For random tests, and destructive tests","moderators":null,"totalItems":12,"totalComments":112,"mostRecentUpdate":{"microcosmId":2,"itemType":"conversation","id":25,"title":"Links testing","totalComments":1,"totalViews":4,"lastCommentId":217,"lastCommentCreatedBy":{"id":2,"userId":2,"profileName":"Velocio","visible":true,"gravatar":"https://secure.gravatar.com/avatar/309cb01f0a25f751e7294407d983f801","meta":{"links":[{"rel":"self","href":"/api/v1/profiles/2"},{"rel":"site","href":"/api/v1/sites/1"}]}},"lastCommentCreated":"2013-05-08T17:03:49.84134Z","meta":{"created":"2013-05-08T17:03:22.101966Z","createdBy":{"id":2,"userId":2,"profileName":"Velocio","visible":true,"gravatar":"https://secure.gravatar.com/avatar/309cb01f0a25f751e7294407d983f801","meta":{"links":[{"rel":"self","href":"/api/v1/profiles/2"},{"rel":"site","href":"/api/v1/sites/1"}]}},"flags":{"sticky":false,"open":true,"deleted":false,"moderated":false,"visible":true},"links":[{"rel":"self","href":"/api/v1/conversations/25"}]}},"meta":{"created":"2013-05-02T09:00:26.269579Z","createdBy":{"id":2,"userId":2,"profileName":"Velocio","visible":true,"gravatar":"https://secure.gravatar.com/avatar/309cb01f0a25f751e7294407d983f801","meta":{"links":[{"rel":"self","href":"/api/v1/profiles/2"},{"rel":"site","href":"/api/v1/sites/1"}]}},"flags":{"sticky":false,"open":true,"deleted":false,"moderated":false,"visible":false},"links":[{"rel":"self","href":"/api/v1/microcosms/2"},{"rel":"site","href":"/api/v1/sites/1"}]}},{"id":21,"visibility":"public","title":"Giro D'Italia","description":"Giro D'Italia","moderators":null,"totalItems":3,"totalComments":11,"mostRecentUpdate":{"microcosmId":21,"itemType":"conversation","id":19,"title":"Videos","totalComments":6,"totalViews":31,"lastCommentId":176,"lastCommentCreatedBy":{"id":7,"userId":7,"profileName":"mandsmandsmands","visible":false,"gravatar":"https://secure.gravatar.com/avatar/3c1a376d2cc83feb107859f73a0ee285","meta":{"links":[{"rel":"self","href":"/api/v1/profiles/7"},{"rel":"site","href":"/api/v1/sites/1"}]}},"lastCommentCreated":"2013-05-07T19:24:34.711094Z","meta":{"created":"2013-05-05T14:31:26.25239Z","createdBy":{"id":21,"userId":21,"profileName":"סקידנסר","visible":false,"gravatar":"https://secure.gravatar.com/avatar/1fb1dea1c54c0863e997e1e1d009156a","meta":{"links":[{"rel":"self","href":"/api/v1/profiles/21"},{"rel":"site","href":"/api/v1/sites/1"}]}},"flags":{"sticky":false,"open":true,"deleted":false,"moderated":false,"visible":true},"links":[{"rel":"self","href":"/api/v1/conversations/19"}]}},"meta":{"created":"2013-05-05T14:26:41.883581Z","createdBy":{"id":21,"userId":21,"profileName":"סקידנסר","visible":false,"gravatar":"https://secure.gravatar.com/avatar/1fb1dea1c54c0863e997e1e1d009156a","meta":{"links":[{"rel":"self","href":"/api/v1/profiles/21"},{"rel":"site","href":"/api/v1/sites/1"}]}},"flags":{"sticky":false,"open":true,"deleted":false,"moderated":false,"visible":false},"links":[{"rel":"self","href":"/api/v1/microcosms/21"},{"rel":"site","href":"/api/v1/sites/1"}]}},{"id":20,"visibility":"public","title":"Foo","description":"Bar","moderators":null,"totalItems":0,"totalComments":2,"mostRecentUpdate":{"microcosmId":20,"itemType":"event","id":8,"title":"Foobar","totalComments":2,"totalViews":21,"lastCommentId":219,"lastCommentCreatedBy":{"id":21,"userId":21,"profileName":"סקידנסר","visible":false,"gravatar":"https://secure.gravatar.com/avatar/1fb1dea1c54c0863e997e1e1d009156a","meta":{"links":[{"rel":"self","href":"/api/v1/profiles/21"},{"rel":"site","href":"/api/v1/sites/1"}]}},"lastCommentCreated":"2013-05-08T21:28:20.227155Z","meta":{"created":"2013-05-04T16:44:57.284105Z","createdBy":{"id":32,"userId":32,"profileName":"mail","visible":false,"gravatar":"https://secure.gravatar.com/avatar/9122b1f87f97c6d92cb136e53649cf2e","meta":{"links":[{"rel":"self","href":"/api/v1/profiles/32"},{"rel":"site","href":"/api/v1/sites/1"}]}},"flags":{"sticky":false,"open":true,"deleted":false,"moderated":false,"visible":true},"links":[{"rel":"self","href":"/api/v1/events/8"}]}},"meta":{"created":"2013-05-04T16:44:00.049593Z","createdBy":{"id":32,"userId":32,"profileName":"mail","visible":false,"gravatar":"https://secure.gravatar.com/avatar/9122b1f87f97c6d92cb136e53649cf2e","meta":{"links":[{"rel":"self","href":"/api/v1/profiles/32"},{"rel":"site","href":"/api/v1/sites/1"}]}},"flags":{"sticky":false,"open":true,"deleted":false,"moderated":false,"visible":false},"links":[{"rel":"self","href":"/api/v1/microcosms/20"},{"rel":"site","href":"/api/v1/sites/1"}]}},{"id":31,"visibility":"public","title":"Test microcosm edited","description":"Created by selenium","moderators":null,"totalItems":2,"totalComments":1,"mostRecentUpdate":{"microcosmId":31,"itemType":"event","id":14,"title":"Selenium test event","totalComments":0,"totalViews":4,"meta":{"created":"2013-05-08T15:41:37.505211Z","createdBy":{"id":13,"userId":13,"profileName":"personauser_edited","visible":false,"gravatar":"https://secure.gravatar.com/avatar/478ddedce4d1b0b9359b0e3d4e869474","meta":{"links":[{"rel":"self","href":"/api/v1/profiles/13"},{"rel":"site","href":"/api/v1/sites/1"}]}},"flags":{"sticky":false,"open":true,"deleted":false,"moderated":false,"visible":true},"links":[{"rel":"self","href":"/api/v1/events/14"}]}},"meta":{"created":"2013-05-08T15:40:58.869855Z","createdBy":{"id":13,"userId":13,"profileName":"personauser_edited","visible":false,"gravatar":"https://secure.gravatar.com/avatar/478ddedce4d1b0b9359b0e3d4e869474","meta":{"links":[{"rel":"self","href":"/api/v1/profiles/13"},{"rel":"site","href":"/api/v1/sites/1"}]}},"flags":{"sticky":false,"open":true,"deleted":false,"moderated":false,"visible":false},"links":[{"rel":"self","href":"/api/v1/microcosms/31"},{"rel":"site","href":"/api/v1/sites/1"}]}},{"id":3,"visibility":"public","title":"Test microcosm edited","description":"Created by selenium","moderators":null,"totalItems":0,"totalComments":0,"mostRecentUpdate":{"microcosmId":3,"itemType":"conversation","id":3,"title":"Conversation test edited","totalComments":0,"totalViews":12,"lastCommentId":55,"lastCommentCreatedBy":{"id":13,"userId":13,"profileName":"personauser_edited","visible":false,"gravatar":"https://secure.gravatar.com/avatar/478ddedce4d1b0b9359b0e3d4e869474","meta":{"links":[{"rel":"self","href":"/api/v1/profiles/13"},{"rel":"site","href":"/api/v1/sites/1"}]}},"lastCommentCreated":"2013-05-02T11:12:55.801313Z","meta":{"created":"2013-05-02T11:12:37.554572Z","createdBy":{"id":13,"userId":13,"profileName":"personauser_edited","visible":false,"gravatar":"https://secure.gravatar.com/avatar/478ddedce4d1b0b9359b0e3d4e869474","meta":{"links":[{"rel":"self","href":"/api/v1/profiles/13"},{"rel":"site","href":"/api/v1/sites/1"}]}},"flags":{"sticky":false,"open":true,"deleted":false,"moderated":false,"visible":true},"links":[{"rel":"self","href":"/api/v1/conversations/3"}]}},"meta":{"created":"2013-05-02T11:12:20.231626Z","createdBy":{"id":13,"userId":13,"profileName":"personauser_edited","visible":false,"gravatar":"https://secure.gravatar.com/avatar/478ddedce4d1b0b9359b0e3d4e869474","meta":{"links":[{"rel":"self","href":"/api/v1/profiles/13"},{"rel":"site","href":"/api/v1/sites/1"}]}},"flags":{"sticky":false,"open":true,"deleted":false,"moderated":false,"visible":false},"links":[{"rel":"self","href":"/api/v1/microcosms/3"},{"rel":"site","href":"/api/v1/sites/1"}]}},{"id":4,"visibility":"public","title":"Micro1","description":"Desc1","moderators":null,"totalItems":0,"totalComments":0,"mostRecentUpdate":null,"meta":{"created":"2013-05-02T14:17:11.571787Z","createdBy":{"id":7,"userId":7,"profileName":"mandsmandsmands","visible":false,"gravatar":"https://secure.gravatar.com/avatar/3c1a376d2cc83feb107859f73a0ee285","meta":{"links":[{"rel":"self","href":"/api/v1/profiles/7"},{"rel":"site","href":"/api/v1/sites/1"}]}},"flags":{"sticky":false,"open":true,"deleted":false,"moderated":false,"visible":false},"links":[{"rel":"self","href":"/api/v1/microcosms/4"},{"rel":"site","href":"/api/v1/sites/1"}]}},{"id":5,"visibility":"public","title":"Micro2","description":"Desc2","moderators":null,"totalItems":0,"totalComments":0,"mostRecentUpdate":null,"meta":{"created":"2013-05-02T14:17:27.297944Z","createdBy":{"id":7,"userId":7,"profileName":"mandsmandsmands","visible":false,"gravatar":"https://secure.gravatar.com/avatar/3c1a376d2cc83feb107859f73a0ee285","meta":{"links":[{"rel":"self","href":"/api/v1/profiles/7"},{"rel":"site","href":"/api/v1/sites/1"}]}},"flags":{"sticky":false,"open":true,"deleted":false,"moderated":false,"visible":false},"links":[{"rel":"self","href":"/api/v1/microcosms/5"},{"rel":"site","href":"/api/v1/sites/1"}]}},{"id":6,"visibility":"public","title":"Micro3","description":"Desc3","moderators":null,"totalItems":0,"totalComments":0,"mostRecentUpdate":null,"meta":{"created":"2013-05-02T14:17:46.224639Z","createdBy":{"id":7,"userId":7,"profileName":"mandsmandsmands","visible":false,"gravatar":"https://secure.gravatar.com/avatar/3c1a376d2cc83feb107859f73a0ee285","meta":{"links":[{"rel":"self","href":"/api/v1/profiles/7"},{"rel":"site","href":"/api/v1/sites/1"}]}},"flags":{"sticky":false,"open":true,"deleted":false,"moderated":false,"visible":false},"links":[{"rel":"self","href":"/api/v1/microcosms/6"},{"rel":"site","href":"/api/v1/sites/1"}]}},{"id":7,"visibility":"public","title":"Micro4","description":"Desc4","moderators":null,"totalItems":0,"totalComments":0,"mostRecentUpdate":null,"meta":{"created":"2013-05-02T14:18:13.658108Z","createdBy":{"id":7,"userId":7,"profileName":"mandsmandsmands","visible":false,"gravatar":"https://secure.gravatar.com/avatar/3c1a376d2cc83feb107859f73a0ee285","meta":{"links":[{"rel":"self","href":"/api/v1/profiles/7"},{"rel":"site","href":"/api/v1/sites/1"}]}},"flags":{"sticky":false,"open":true,"deleted":false,"moderated":false,"visible":false},"links":[{"rel":"self","href":"/api/v1/microcosms/7"},{"rel":"site","href":"/api/v1/sites/1"}]}},{"id":8,"visibility":"public","title":"Micro5","description":"Desc5","moderators":null,"totalItems":0,"totalComments":0,"mostRecentUpdate":null,"meta":{"created":"2013-05-02T14:18:39.645163Z","createdBy":{"id":7,"userId":7,"profileName":"mandsmandsmands","visible":false,"gravatar":"https://secure.gravatar.com/avatar/3c1a376d2cc83feb107859f73a0ee285","meta":{"links":[{"rel":"self","href":"/api/v1/profiles/7"},{"rel":"site","href":"/api/v1/sites/1"}]}},"flags":{"sticky":false,"open":true,"deleted":false,"moderated":false,"visible":false},"links":[{"rel":"self","href":"/api/v1/microcosms/8"},{"rel":"site","href":"/api/v1/sites/1"}]}},{"id":9,"visibility":"public","title":"Micro6","description":"Desc6","moderators":null,"totalItems":0,"totalComments":0,"mostRecentUpdate":null,"meta":{"created":"2013-05-02T14:58:21.73863Z","createdBy":{"id":7,"userId":7,"profileName":"mandsmandsmands","visible":false,"gravatar":"https://secure.gravatar.com/avatar/3c1a376d2cc83feb107859f73a0ee285","meta":{"links":[{"rel":"self","href":"/api/v1/profiles/7"},{"rel":"site","href":"/api/v1/sites/1"}]}},"flags":{"sticky":false,"open":true,"deleted":false,"moderated":false,"visible":false},"links":[{"rel":"self","href":"/api/v1/microcosms/9"},{"rel":"site","href":"/api/v1/sites/1"}]}},{"id":10,"visibility":"public","title":"Micro7","description":"Desc7","moderators":null,"totalItems":0,"totalComments":0,"mostRecentUpdate":null,"meta":{"created":"2013-05-02T14:58:43.523053Z","createdBy":{"id":7,"userId":7,"profileName":"mandsmandsmands","visible":false,"gravatar":"https://secure.gravatar.com/avatar/3c1a376d2cc83feb107859f73a0ee285","meta":{"links":[{"rel":"self","href":"/api/v1/profiles/7"},{"rel":"site","href":"/api/v1/sites/1"}]}},"flags":{"sticky":false,"open":true,"deleted":false,"moderated":false,"visible":false},"links":[{"rel":"self","href":"/api/v1/microcosms/10"},{"rel":"site","href":"/api/v1/sites/1"}]}},{"id":12,"visibility":"public","title":"Gaming","description":"for all your gaming needs - pc, console, mobile - whatever floats your boat","moderators":null,"totalItems":0,"totalComments":0,"mostRecentUpdate":{"microcosmId":12,"itemType":"conversation","id":5,"title":"Android recommendations","totalComments":0,"totalViews":4,"lastCommentId":62,"lastCommentCreatedBy":{"id":15,"userId":15,"profileName":"MrDrem","visible":false,"gravatar":"https://secure.gravatar.com/avatar/68e312aba94f8a16884436f07fe92ccb","meta":{"links":[{"rel":"self","href":"/api/v1/profiles/15"},{"rel":"site","href":"/api/v1/sites/1"}]}},"lastCommentCreated":"2013-05-02T17:56:18.155855Z","meta":{"created":"2013-05-02T17:53:56.863845Z","createdBy":{"id":15,"userId":15,"profileName":"MrDrem","visible":false,"gravatar":"https://secure.gravatar.com/avatar/68e312aba94f8a16884436f07fe92ccb","meta":{"links":[{"rel":"self","href":"/api/v1/profiles/15"},{"rel":"site","href":"/api/v1/sites/1"}]}},"flags":{"sticky":false,"open":true,"deleted":false,"moderated":false,"visible":true},"links":[{"rel":"self","href":"/api/v1/conversations/5"}]}},"meta":{"created":"2013-05-02T17:52:19.780471Z","createdBy":{"id":15,"userId":15,"profileName":"MrDrem","visible":false,"gravatar":"https://secure.gravatar.com/avatar/68e312aba94f8a16884436f07fe92ccb","meta":{"links":[{"rel":"self","href":"/api/v1/profiles/15"},{"rel":"site","href":"/api/v1/sites/1"}]}},"flags":{"sticky":false,"open":true,"deleted":false,"moderated":false,"visible":false},"links":[{"rel":"self","href":"/api/v1/microcosms/12"},{"rel":"site","href":"/api/v1/sites/1"}]}},{"id":15,"visibility":"public","title":"ŧełe¶ŧŋđðßðđŋħħ“¢»«»¢","description":"→↓←ŧ¶eđŋeø→þß→↓ŋþæøełħ¶eł→↓¶ħæđnø→łþ¶@łeeþ@e@łe@ë@e@łeø","moderators":null,"totalItems":0,"totalComments":0,"mostRecentUpdate":null,"meta":{"created":"2013-05-03T08:50:54.426707Z","createdBy":{"id":1,"userId":1,"profileName":"blueprint","visible":true,"gravatar":"https://secure.gravatar.com/avatar/1e8c599f24534b2335e267b96153f9e7","meta":{"links":[{"rel":"self","href":"/api/v1/profiles/1"},{"rel":"site","href":"/api/v1/sites/1"}]}},"flags":{"sticky":false,"open":true,"deleted":false,"moderated":false,"visible":false},"links":[{"rel":"self","href":"/api/v1/microcosms/15"},{"rel":"site","href":"/api/v1/sites/1"}]}},{"id":17,"visibility":"public","title":"Micro8_1","description":"Desc8","moderators":null,"totalItems":0,"totalComments":0,"mostRecentUpdate":null,"meta":{"created":"2013-05-03T15:23:19.154432Z","createdBy":{"id":7,"userId":7,"profileName":"mandsmandsmands","visible":false,"gravatar":"https://secure.gravatar.com/avatar/3c1a376d2cc83feb107859f73a0ee285","meta":{"links":[{"rel":"self","href":"/api/v1/profiles/7"},{"rel":"site","href":"/api/v1/sites/1"}]}},"flags":{"sticky":false,"open":true,"deleted":false,"moderated":false,"visible":false},"links":[{"rel":"self","href":"/api/v1/microcosms/17"},{"rel":"site","href":"/api/v1/sites/1"}]}},{"id":18,"visibility":"public","title":"Micro9","description":"Desc9","moderators":null,"totalItems":0,"totalComments":0,"mostRecentUpdate":null,"meta":{"created":"2013-05-03T15:23:56.606353Z","createdBy":{"id":7,"userId":7,"profileName":"mandsmandsmands","visible":false,"gravatar":"https://secure.gravatar.com/avatar/3c1a376d2cc83feb107859f73a0ee285","meta":{"links":[{"rel":"self","href":"/api/v1/profiles/7"},{"rel":"site","href":"/api/v1/sites/1"}]}},"flags":{"sticky":false,"open":true,"deleted":false,"moderated":false,"visible":false},"links":[{"rel":"self","href":"/api/v1/microcosms/18"},{"rel":"site","href":"/api/v1/sites/1"}]}},{"id":19,"visibility":"public","title":"מיכרוכוסם בעברית","description":"שלום כולם","moderators":null,"totalItems":0,"totalComments":0,"mostRecentUpdate":{"microcosmId":19,"itemType":"conversation","id":14,"title":"red red wine","totalComments":0,"totalViews":8,"lastCommentId":99,"lastCommentCreatedBy":{"id":33,"userId":33,"profileName":"Harold","visible":false,"gravatar":"https://secure.gravatar.com/avatar/ddf807581a696501cb157901363d70f4","meta":{"links":[{"rel":"self","href":"/api/v1/profiles/33"},{"rel":"site","href":"/api/v1/sites/1"}]}},"lastCommentCreated":"2013-05-04T21:46:35.397459Z","meta":{"created":"2013-05-04T09:26:02.521629Z","createdBy":{"id":21,"userId":21,"profileName":"סקידנסר","visible":false,"gravatar":"https://secure.gravatar.com/avatar/1fb1dea1c54c0863e997e1e1d009156a","meta":{"links":[{"rel":"self","href":"/api/v1/profiles/21"},{"rel":"site","href":"/api/v1/sites/1"}]}},"flags":{"sticky":false,"open":true,"deleted":false,"moderated":false,"visible":true},"links":[{"rel":"self","href":"/api/v1/conversations/14"}]}},"meta":{"created":"2013-05-04T09:23:37.275358Z","createdBy":{"id":21,"userId":21,"profileName":"סקידנסר","visible":false,"gravatar":"https://secure.gravatar.com/avatar/1fb1dea1c54c0863e997e1e1d009156a","meta":{"links":[{"rel":"self","href":"/api/v1/profiles/21"},{"rel":"site","href":"/api/v1/sites/1"}]}},"flags":{"sticky":false,"open":true,"deleted":false,"moderated":false,"visible":false},"links":[{"rel":"self","href":"/api/v1/microcosms/19"},{"rel":"site","href":"/api/v1/sites/1"}]}},{"id":22,"visibility":"public","title":"Micro10","description":"Desc10","moderators":null,"totalItems":0,"totalComments":0,"mostRecentUpdate":null,"meta":{"created":"2013-05-07T19:23:11.970291Z","createdBy":{"id":7,"userId":7,"profileName":"mandsmandsmands","visible":false,"gravatar":"https://secure.gravatar.com/avatar/3c1a376d2cc83feb107859f73a0ee285","meta":{"links":[{"rel":"self","href":"/api/v1/profiles/7"},{"rel":"site","href":"/api/v1/sites/1"}]}},"flags":{"sticky":false,"open":true,"deleted":false,"moderated":false,"visible":false},"links":[{"rel":"self","href":"/api/v1/microcosms/22"},{"rel":"site","href":"/api/v1/sites/1"}]}},{"id":23,"visibility":"public","title":"Micro11","description":"Desc11","moderators":null,"totalItems":0,"totalComments":0,"mostRecentUpdate":null,"meta":{"created":"2013-05-07T19:26:46.753328Z","createdBy":{"id":7,"userId":7,"profileName":"mandsmandsmands","visible":false,"gravatar":"https://secure.gravatar.com/avatar/3c1a376d2cc83feb107859f73a0ee285","meta":{"links":[{"rel":"self","href":"/api/v1/profiles/7"},{"rel":"site","href":"/api/v1/sites/1"}]}},"flags":{"sticky":false,"open":true,"deleted":false,"moderated":false,"visible":false},"links":[{"rel":"self","href":"/api/v1/microcosms/23"},{"rel":"site","href":"/api/v1/sites/1"}]}},{"id":24,"visibility":"public","title":"Micro12","description":"Desc12","moderators":null,"totalItems":0,"totalComments":0,"mostRecentUpdate":null,"meta":{"created":"2013-05-07T19:27:02.442288Z","createdBy":{"id":7,"userId":7,"profileName":"mandsmandsmands","visible":false,"gravatar":"https://secure.gravatar.com/avatar/3c1a376d2cc83feb107859f73a0ee285","meta":{"links":[{"rel":"self","href":"/api/v1/profiles/7"},{"rel":"site","href":"/api/v1/sites/1"}]}},"flags":{"sticky":false,"open":true,"deleted":false,"moderated":false,"visible":false},"links":[{"rel":"self","href":"/api/v1/microcosms/24"},{"rel":"site","href":"/api/v1/sites/1"}]}},{"id":25,"visibility":"public","title":"Micro13","description":"Desc13","moderators":null,"totalItems":0,"totalComments":0,"mostRecentUpdate":null,"meta":{"created":"2013-05-07T19:27:15.09176Z","createdBy":{"id":7,"userId":7,"profileName":"mandsmandsmands","visible":false,"gravatar":"https://secure.gravatar.com/avatar/3c1a376d2cc83feb107859f73a0ee285","meta":{"links":[{"rel":"self","href":"/api/v1/profiles/7"},{"rel":"site","href":"/api/v1/sites/1"}]}},"flags":{"sticky":false,"open":true,"deleted":false,"moderated":false,"visible":false},"links":[{"rel":"self","href":"/api/v1/microcosms/25"},{"rel":"site","href":"/api/v1/sites/1"}]}},{"id":26,"visibility":"public","title":"Micro14","description":"Desc14","moderators":null,"totalItems":0,"totalComments":0,"mostRecentUpdate":null,"meta":{"created":"2013-05-07T19:27:49.086133Z","createdBy":{"id":7,"userId":7,"profileName":"mandsmandsmands","visible":false,"gravatar":"https://secure.gravatar.com/avatar/3c1a376d2cc83feb107859f73a0ee285","meta":{"links":[{"rel":"self","href":"/api/v1/profiles/7"},{"rel":"site","href":"/api/v1/sites/1"}]}},"flags":{"sticky":false,"open":true,"deleted":false,"moderated":false,"visible":false},"links":[{"rel":"self","href":"/api/v1/microcosms/26"},{"rel":"site","href":"/api/v1/sites/1"}]}},{"id":27,"visibility":"public","title":"Micro15","description":"Desc15","moderators":null,"totalItems":0,"totalComments":0,"mostRecentUpdate":null,"meta":{"created":"2013-05-07T19:28:11.285819Z","createdBy":{"id":7,"userId":7,"profileName":"mandsmandsmands","visible":false,"gravatar":"https://secure.gravatar.com/avatar/3c1a376d2cc83feb107859f73a0ee285","meta":{"links":[{"rel":"self","href":"/api/v1/profiles/7"},{"rel":"site","href":"/api/v1/sites/1"}]}},"flags":{"sticky":false,"open":true,"deleted":false,"moderated":false,"visible":false},"links":[{"rel":"self","href":"/api/v1/microcosms/27"},{"rel":"site","href":"/api/v1/sites/1"}]}},{"id":28,"visibility":"public","title":"Micro16","description":"Desc16","moderators":null,"totalItems":0,"totalComments":0,"mostRecentUpdate":null,"meta":{"created":"2013-05-07T19:48:22.133764Z","createdBy":{"id":7,"userId":7,"profileName":"mandsmandsmands","visible":false,"gravatar":"https://secure.gravatar.com/avatar/3c1a376d2cc83feb107859f73a0ee285","meta":{"links":[{"rel":"self","href":"/api/v1/profiles/7"},{"rel":"site","href":"/api/v1/sites/1"}]}},"flags":{"sticky":false,"open":true,"deleted":false,"moderated":false,"visible":false},"links":[{"rel":"self","href":"/api/v1/microcosms/28"},{"rel":"site","href":"/api/v1/sites/1"}]}}]},"meta":{"links":[{"rel":"self","href":"/api/v1/microcosms"}],"permissions":{"create":false,"read":true,"update":false,"delete":false,"guest":true,"superUser":false}}},"error":null}